[
  { "id": "1", "word": "Le Parrain", "created_at": "2024-06-11T20:49:54" },
  { "id": "2", "word": "Hunger Games", "created_at": "2024-06-11T20:49:54" },
  {
    "id": "3",
    "word": "The Greatest Showman",
    "created_at": "2024-06-11T20:49:54"
  },
  { "id": "4", "word": "Star Wars", "created_at": "2024-06-11T20:49:54" },
  { "id": "5", "word": "Matrix", "created_at": "2024-06-11T20:49:54" },
  {
    "id": "6",
    "word": "Moi, Moche et Méchant",
    "created_at": "2024-06-11T20:49:54"
  },
  {
    "id": "7",
    "word": "Batman : Le Chevalier Noir",
    "created_at": "2024-06-11T20:49:54"
  },
  { "id": "8", "word": "Jurassic Park", "created_at": "2024-06-11T20:49:54" },
  { "id": "9", "word": "Titanic", "created_at": "2024-06-11T20:49:54" },
  { "id": "10", "word": "Shrek", "created_at": "2024-06-11T20:49:54" },
  { "id": "11", "word": "Le Labyrinthe", "created_at": "2024-06-11T20:49:54" },
  {
    "id": "12",
    "word": "Le Jour d'Après",
    "created_at": "2024-06-11T20:49:54"
  },
  { "id": "13", "word": "Avatar", "created_at": "2024-06-11T20:49:54" },
  {
    "id": "14",
    "word": "La Soupe aux Choux",
    "created_at": "2024-06-11T20:49:54"
  },
  {
    "id": "15",
    "word": "Le Seigneur des Anneaux",
    "created_at": "2024-06-11T20:49:54"
  },
  {
    "id": "16",
    "word": "Pirates des Caraïbes",
    "created_at": "2024-06-11T20:49:54"
  },
  { "id": "17", "word": "Deadpool", "created_at": "2024-06-11T20:49:54" },
  {
    "id": "18",
    "word": "Retour vers le futur",
    "created_at": "2024-06-11T20:49:54"
  },
  { "id": "19", "word": "E.T.", "created_at": "2024-06-11T20:49:54" },
  { "id": "20", "word": "Indiana Jones", "created_at": "2024-06-11T20:49:54" },
  {
    "id": "21",
    "word": "Les Dents de la mer",
    "created_at": "2024-06-11T20:49:54"
  },
  { "id": "22", "word": "Rocky", "created_at": "2024-06-11T20:49:54" },
  { "id": "23", "word": "Twilight", "created_at": "2024-06-11T20:49:54" },
  {
    "id": "24",
    "word": "Le diable s'habille en Prada",
    "created_at": "2024-06-11T20:49:54"
  },
  {
    "id": "25",
    "word": "Charlie et la Chocolaterie",
    "created_at": "2024-06-11T20:49:54"
  },
  {
    "id": "26",
    "word": "S.O.S. Fantômes",
    "created_at": "2024-06-11T20:49:54"
  },
  {
    "id": "27",
    "word": "Bohemian Rhapsody",
    "created_at": "2024-06-11T20:49:54"
  },
  { "id": "28", "word": "Top Gun", "created_at": "2024-06-11T20:49:54" },
  {
    "id": "29",
    "word": "Le Flic de Beverly Hills",
    "created_at": "2024-06-11T20:49:54"
  },
  { "id": "30", "word": "Terminator", "created_at": "2024-06-11T20:49:54" },
  {
    "id": "31",
    "word": "High School Musical",
    "created_at": "2024-06-11T20:49:54"
  },
  { "id": "32", "word": "Forrest Gump", "created_at": "2024-06-11T20:49:54" },
  { "id": "33", "word": "Nanny McPhee", "created_at": "2024-06-11T20:49:54" },
  { "id": "34", "word": "Les Tuche", "created_at": "2024-06-11T20:49:54" },
  {
    "id": "35",
    "word": "Mission : Impossible",
    "created_at": "2024-06-11T20:49:54"
  },
  { "id": "36", "word": "Titanic", "created_at": "2024-06-11T20:49:54" },
  {
    "id": "37",
    "word": "Le Monde de Narnia",
    "created_at": "2024-06-11T20:49:54"
  },
  { "id": "38", "word": "Mamma Mia", "created_at": "2024-06-11T20:49:54" },
  { "id": "39", "word": "Scary Movie", "created_at": "2024-06-11T20:49:54" },
  {
    "id": "40",
    "word": "Allo maman, j'ai raté l'avion !",
    "created_at": "2024-06-11T20:49:54"
  },
  { "id": "41", "word": "Breaking Bad", "created_at": "2024-06-11T20:49:54" },
  {
    "id": "42",
    "word": "Game of Thrones",
    "created_at": "2024-06-11T20:49:54"
  },
  { "id": "43", "word": "Friends", "created_at": "2024-06-11T20:49:54" },
  {
    "id": "44",
    "word": "Stranger Things",
    "created_at": "2024-06-11T20:49:54"
  },
  { "id": "45", "word": "Les Simpson", "created_at": "2024-06-11T20:49:54" },
  { "id": "46", "word": "Gilmore Girls", "created_at": "2024-06-11T20:49:54" },
  {
    "id": "47",
    "word": "La Chroniques des Bridgerton",
    "created_at": "2024-06-11T20:49:54"
  },
  { "id": "48", "word": "The Flash", "created_at": "2024-06-11T20:49:54" },
  { "id": "49", "word": "Sherlock", "created_at": "2024-06-11T20:49:54" },
  {
    "id": "50",
    "word": "Les Frères Scott",
    "created_at": "2024-06-11T20:49:54"
  },
  { "id": "51", "word": "Lost", "created_at": "2024-06-11T20:49:54" },
  {
    "id": "52",
    "word": "Esprits criminels",
    "created_at": "2024-06-11T20:49:54"
  },
  { "id": "53", "word": "Grey's Anatomy", "created_at": "2024-06-11T20:49:54" },
  {
    "id": "54",
    "word": "Ginny & Georgia",
    "created_at": "2024-06-11T20:49:54"
  },
  {
    "id": "55",
    "word": "How To Get Away With Murder",
    "created_at": "2024-06-11T20:49:54"
  },
  {
    "id": "56",
    "word": "Plus Belle la Vie",
    "created_at": "2024-06-11T20:49:54"
  },
  { "id": "57", "word": "Vikings", "created_at": "2024-06-11T20:49:54" },
  { "id": "58", "word": "The Witcher", "created_at": "2024-06-11T20:49:54" },
  { "id": "59", "word": "Good Doctor", "created_at": "2024-06-11T20:49:54" },
  {
    "id": "60",
    "word": "The Big Bang Theory",
    "created_at": "2024-06-11T20:49:54"
  },
  { "id": "61", "word": "Totally Spies", "created_at": "2024-06-11T20:49:54" },
  { "id": "62", "word": "Manifest", "created_at": "2024-06-11T20:49:54" },
  { "id": "63", "word": "Hannah Montana", "created_at": "2024-06-11T20:49:54" },
  { "id": "64", "word": "Scooby-Doo", "created_at": "2024-06-11T20:49:54" },
  {
    "id": "65",
    "word": "Desperate Housewives",
    "created_at": "2024-06-11T20:49:54"
  },
  { "id": "66", "word": "Mercredi", "created_at": "2024-06-11T20:49:54" },
  { "id": "67", "word": "Glee", "created_at": "2024-06-11T20:49:54" },
  {
    "id": "68",
    "word": "Buffy Contre les Vampires",
    "created_at": "2024-06-11T20:49:54"
  },
  {
    "id": "69",
    "word": "Walker : Texas Rangers",
    "created_at": "2024-06-11T20:49:54"
  },
  { "id": "70", "word": "Lucifer", "created_at": "2024-06-11T20:49:54" },
  { "id": "71", "word": "Dawson", "created_at": "2024-06-11T20:49:54" },
  { "id": "72", "word": "Dragon Ball Z", "created_at": "2024-06-11T20:49:54" },
  { "id": "73", "word": "The Expanse", "created_at": "2024-06-11T20:49:54" },
  { "id": "74", "word": "Pokemon", "created_at": "2024-06-11T20:49:54" },
  {
    "id": "75",
    "word": "The Handmaid's Tale",
    "created_at": "2024-06-11T20:49:54"
  },
  {
    "id": "76",
    "word": "Ghost Whisperer",
    "created_at": "2024-06-11T20:49:54"
  },
  {
    "id": "77",
    "word": "The Walking Dead",
    "created_at": "2024-06-11T20:49:54"
  },
  { "id": "78", "word": "Homeland", "created_at": "2024-06-11T20:49:54" },
  {
    "id": "79",
    "word": "The Umbrella Academy",
    "created_at": "2024-06-11T20:49:54"
  },
  { "id": "80", "word": "13 Reasons Why", "created_at": "2024-06-11T20:49:54" },
  { "id": "81", "word": "Donald Duck", "created_at": "2024-06-11T20:49:54" },
  { "id": "82", "word": "Olaf", "created_at": "2024-06-11T20:49:54" },
  { "id": "83", "word": "Tic & Tac", "created_at": "2024-06-11T20:49:54" },
  { "id": "84", "word": "Cendrillon", "created_at": "2024-06-11T20:49:54" },
  { "id": "85", "word": "Blanche-Neige", "created_at": "2024-06-11T20:49:54" },
  { "id": "86", "word": "Grincheux", "created_at": "2024-06-11T20:49:54" },
  { "id": "87", "word": "Javotte", "created_at": "2024-06-11T20:49:54" },
  {
    "id": "88",
    "word": "La Belle et la Bête",
    "created_at": "2024-06-11T20:49:54"
  },
  { "id": "89", "word": "Jafar", "created_at": "2024-06-11T20:49:54" },
  { "id": "90", "word": "Timon", "created_at": "2024-06-11T20:49:54" },
  { "id": "91", "word": "L'air du vent", "created_at": "2024-06-11T20:49:54" },
  { "id": "92", "word": "Comme un homme", "created_at": "2024-06-11T20:49:54" },
  { "id": "93", "word": "Tarzan", "created_at": "2024-06-11T20:49:54" },
  { "id": "94", "word": "Hercule", "created_at": "2024-06-11T20:49:54" },
  {
    "id": "95",
    "word": "La Reine des Neiges",
    "created_at": "2024-06-11T20:49:54"
  },
  { "id": "96", "word": "Pua", "created_at": "2024-06-11T20:49:54" },
  { "id": "97", "word": "Raiponce", "created_at": "2024-06-11T20:49:54" },
  { "id": "98", "word": "Buzz L'Eclair", "created_at": "2024-06-11T20:49:54" },
  {
    "id": "99",
    "word": "Le Monde de Nemo",
    "created_at": "2024-06-11T20:49:54"
  },
  {
    "id": "100",
    "word": "Les Indestructibles",
    "created_at": "2024-06-11T20:49:54"
  },
  {
    "id": "101",
    "word": "Monstres et Cie",
    "created_at": "2024-06-11T20:49:54"
  },
  { "id": "102", "word": "Cars", "created_at": "2024-06-11T20:49:54" },
  { "id": "103", "word": "Rémy", "created_at": "2024-06-11T20:49:54" },
  { "id": "104", "word": "WALL-E", "created_at": "2024-06-11T20:49:54" },
  { "id": "105", "word": "Là-haut", "created_at": "2024-06-11T20:49:54" },
  { "id": "106", "word": "Rebelle", "created_at": "2024-06-11T20:49:54" },
  { "id": "107", "word": "Coco", "created_at": "2024-06-11T20:49:54" },
  { "id": "108", "word": "Colère", "created_at": "2024-06-11T20:49:54" },
  {
    "id": "109",
    "word": "Raya et le Dernier Dragon",
    "created_at": "2024-06-11T20:49:54"
  },
  {
    "id": "110",
    "word": "Ne Parlons pas de Bruno",
    "created_at": "2024-06-11T20:49:54"
  },
  {
    "id": "111",
    "word": "Lilo et Stitch",
    "created_at": "2024-06-11T20:49:54"
  },
  {
    "id": "112",
    "word": "Le Livre de la jungle",
    "created_at": "2024-06-11T20:49:54"
  },
  { "id": "113", "word": "Wendy", "created_at": "2024-06-11T20:49:54" },
  { "id": "114", "word": "Dumbo", "created_at": "2024-06-11T20:49:54" },
  {
    "id": "115",
    "word": "Alice au pays des merveilles",
    "created_at": "2024-06-11T20:49:54"
  },
  {
    "id": "116",
    "word": "Pirates des Caraïbes",
    "created_at": "2024-06-11T20:49:54"
  },
  {
    "id": "117",
    "word": "La Maison Hantée",
    "created_at": "2024-06-11T20:49:54"
  },
  {
    "id": "118",
    "word": "Space Mountain",
    "created_at": "2024-06-11T20:49:54"
  },
  {
    "id": "119",
    "word": "It's a Small World",
    "created_at": "2024-06-11T20:49:54"
  },
  {
    "id": "120",
    "word": "Big Thunder Mountain",
    "created_at": "2024-06-11T20:49:54"
  },
  { "id": "121", "word": "Harry Potter", "created_at": "2024-06-11T20:49:54" },
  {
    "id": "122",
    "word": "Hermione Granger",
    "created_at": "2024-06-11T20:49:54"
  },
  { "id": "123", "word": "Ron Weasley", "created_at": "2024-06-11T20:49:54" },
  {
    "id": "124",
    "word": "Wingardium Leviosa",
    "created_at": "2024-06-11T20:49:54"
  },
  {
    "id": "125",
    "word": "Chocogrenouille",
    "created_at": "2024-06-11T20:49:54"
  },
  {
    "id": "126",
    "word": "Lord Voldemort",
    "created_at": "2024-06-11T20:49:54"
  },
  {
    "id": "127",
    "word": "Filtre d'amour",
    "created_at": "2024-06-11T20:49:54"
  },
  { "id": "128", "word": "Sirius Black", "created_at": "2024-06-11T20:49:54" },
  { "id": "129", "word": "Choixpeau", "created_at": "2024-06-11T20:49:54" },
  { "id": "130", "word": "Statues", "created_at": "2024-06-11T20:49:54" },
  { "id": "131", "word": "Gryffondor", "created_at": "2024-06-11T20:49:54" },
  { "id": "132", "word": "Serpentard", "created_at": "2024-06-11T20:49:54" },
  { "id": "133", "word": "Poufsouffle", "created_at": "2024-06-11T20:49:54" },
  { "id": "134", "word": "Serdaigle", "created_at": "2024-06-11T20:49:54" },
  { "id": "135", "word": "Poudlard", "created_at": "2024-06-11T20:49:54" },
  {
    "id": "136",
    "word": "Chemin de Traverse",
    "created_at": "2024-06-11T20:49:54"
  },
  { "id": "137", "word": "Pré-au-Lard", "created_at": "2024-06-11T20:49:54" },
  {
    "id": "138",
    "word": "La Forêt Interdite",
    "created_at": "2024-06-11T20:49:54"
  },
  { "id": "139", "word": "Le Terrier", "created_at": "2024-06-11T20:49:54" },
  { "id": "140", "word": "Azkaban", "created_at": "2024-06-11T20:49:54" },
  {
    "id": "141",
    "word": "La Baguette de Sureau",
    "created_at": "2024-06-11T20:49:54"
  },
  {
    "id": "142",
    "word": "La Cape d'Invisibilité",
    "created_at": "2024-06-11T20:49:54"
  },
  {
    "id": "143",
    "word": "La Pierre de Résurrection",
    "created_at": "2024-06-11T20:49:54"
  },
  { "id": "144", "word": "Le Choixpeau", "created_at": "2024-06-11T20:49:54" },
  {
    "id": "145",
    "word": "La Carte du Maraudeur",
    "created_at": "2024-06-11T20:49:54"
  },
  { "id": "146", "word": "Nimbus 2000", "created_at": "2024-06-11T20:49:54" },
  { "id": "147", "word": "Éclair de Feu", "created_at": "2024-06-11T20:49:54" },
  { "id": "148", "word": "Hedwige", "created_at": "2024-06-11T20:49:54" },
  { "id": "149", "word": "Dobby", "created_at": "2024-06-11T20:49:54" },
  { "id": "150", "word": "Fumseck", "created_at": "2024-06-11T20:49:54" },
  { "id": "151", "word": "Polynectar", "created_at": "2024-06-11T20:49:54" },
  {
    "id": "152",
    "word": "Le Retourneur de Temps",
    "created_at": "2024-06-11T20:49:54"
  },
  {
    "id": "153",
    "word": "La Coupe de Feu",
    "created_at": "2024-06-11T20:49:54"
  },
  { "id": "154", "word": "Prophétie", "created_at": "2024-06-11T20:49:54" },
  { "id": "155", "word": "Baguette", "created_at": "2024-06-11T20:49:54" },
  { "id": "156", "word": "Expelliarmus", "created_at": "2024-06-11T20:49:54" },
  { "id": "157", "word": "Cicatrice", "created_at": "2024-06-11T20:49:54" },
  { "id": "158", "word": "Patronus", "created_at": "2024-06-11T20:49:54" },
  { "id": "159", "word": "Araignées", "created_at": "2024-06-11T20:49:54" },
  { "id": "160", "word": "Clés", "created_at": "2024-06-11T20:49:54" }
]
